^C:\WORK\KINECTSDKBOOK4CPP-MASTER\KINECTSDKBOOK4CPP-MASTER\2_APPLY\USEPCL\DEBUG\KINECTCONTROL.OBJ|C:\WORK\KINECTSDKBOOK4CPP-MASTER\KINECTSDKBOOK4CPP-MASTER\2_APPLY\USEPCL\DEBUG\MAIN.OBJ|C:\WORK\KINECTSDKBOOK4CPP-MASTER\KINECTSDKBOOK4CPP-MASTER\2_APPLY\USEPCL\DEBUG\USEPCL.EXE.EMBED.MANIFEST.RES
/ERRORREPORT:PROMPT /OUT:"C:\work\KinectSDKBook4CPP-master\KinectSDKBook4CPP-master\2_apply\Debug\UsePCL.exe" /INCREMENTAL /NOLOGO /LIBPATH:"C:\Program Files\Microsoft SDKs\Kinect\v1.0\lib\x86" /LIBPATH:C:\opencv\build\x86\vc10\lib /LIBPATH:"C:\Program Files (x86)\PCL 1.6.0\3rdParty\Boost\lib" /LIBPATH:"C:\Program Files (x86)\PCL 1.6.0\lib" /LIBPATH:"C:\Program Files\Microsoft SDKs\Kinect\v1.8\lib\x86" /LIBPATH:C:\OpenCV2.3.1\build\x86\vc10\lib pcl_visualization_debug.lib Kinect10.lib opencv_core231d.lib opencv_highgui231d.lib kernel32.lib user32.lib gdi32.lib winspool.lib comdlg32.lib advapi32.lib shell32.lib ole32.lib oleaut32.lib uuid.lib odbc32.lib odbccp32.lib /MANIFEST /ManifestFile:"Debug\UsePCL.exe.intermediate.manifest" /MANIFESTUAC:"level='asInvoker' uiAccess='false'" /DEBUG /PDB:"C:\work\KinectSDKBook4CPP-master\KinectSDKBook4CPP-master\2_apply\Debug\UsePCL.pdb" /SUBSYSTEM:CONSOLE /TLBID:1 /DYNAMICBASE /NXCOMPAT /IMPLIB:"C:\work\KinectSDKBook4CPP-master\KinectSDKBook4CPP-master\2_apply\Debug\UsePCL.lib" /MACHINE:X86 Debug\UsePCL.exe.embed.manifest.res
Debug\KinectControl.obj
Debug\main.obj
^C:\WORK\PCLSAMPLE\DEBUG\KINECTCONTROL.OBJ|C:\WORK\PCLSAMPLE\DEBUG\MAIN.OBJ|C:\WORK\PCLSAMPLE\DEBUG\USEPCL.EXE.EMBED.MANIFEST.RES
/ERRORREPORT:PROMPT /OUT:"C:\work\PCLsample\Debug\UsePCL.exe" /INCREMENTAL /NOLOGO /LIBPATH:"C:\Program Files\Microsoft SDKs\Kinect\v1.0\lib\x86" /LIBPATH:C:\opencv\build\x86\vc10\lib /LIBPATH:"C:\Program Files (x86)\PCL 1.6.0\3rdParty\Boost\lib" /LIBPATH:"C:\Program Files (x86)\PCL 1.6.0\lib" /LIBPATH:"C:\Program Files\Microsoft SDKs\Kinect\v1.8\lib\x86" /LIBPATH:C:\OpenCV2.3.1\build\x86\vc10\lib pcl_visualization_debug.lib Kinect10.lib opencv_core231d.lib opencv_highgui231d.lib kernel32.lib user32.lib gdi32.lib winspool.lib comdlg32.lib advapi32.lib shell32.lib ole32.lib oleaut32.lib uuid.lib odbc32.lib odbccp32.lib /MANIFEST /ManifestFile:"Debug\UsePCL.exe.intermediate.manifest" /MANIFESTUAC:"level='asInvoker' uiAccess='false'" /DEBUG /PDB:"C:\work\PCLsample\Debug\UsePCL.pdb" /SUBSYSTEM:CONSOLE /TLBID:1 /DYNAMICBASE /NXCOMPAT /IMPLIB:"C:\work\PCLsample\Debug\UsePCL.lib" /MACHINE:X86 Debug\UsePCL.exe.embed.manifest.res
Debug\KinectControl.obj
Debug\main.obj
